[{
        "relation": ["delegate_permission/common.handle_all_urls"],
        "target" : { "namespace": "android_app", "package_name": "org.wwsu1069",
                     "sha256_cert_fingerprints": ["18:98:00:4B:13:7F:54:69:94:5C:43:4E:8A:A2:32:02:C8:82:1C:DB:26:F3:3A:1A:47:4A:B0:C4:33:6D:A5:D8"] }
      }
]